[gd_resource type="Resource" script_class="LevelRES" load_steps=7 format=3 uid="uid://chp62wcjdqyu"]

[ext_resource type="Script" path="res://resources/templates/levelRES.gd" id="1_4uvrg"]
[ext_resource type="Script" path="res://resources/templates/conveyorRES.gd" id="1_esxu1"]
[ext_resource type="Script" path="res://resources/templates/spawn_algorithms/random_spawn_algorithmRES.gd" id="3_4rfrq"]

[sub_resource type="Resource" id="Resource_jakea"]
script = ExtResource("1_esxu1")
color = 0
fall_speed = 30.0
paths_amount = 1

[sub_resource type="Resource" id="Resource_tradd"]
script = ExtResource("1_esxu1")
color = 2
fall_speed = 50.0
paths_amount = 3

[sub_resource type="Resource" id="Resource_ftru6"]
script = ExtResource("3_4rfrq")
cooldown_min = 1.0
cooldown_max = 2.0

[resource]
script = ExtResource("1_4uvrg")
conveyors = Array[ExtResource("1_esxu1")]([SubResource("Resource_jakea"), SubResource("Resource_tradd")])
spawn_algorithm = SubResource("Resource_ftru6")
number = 2
